Checklist of birds of India — india_checklist • skimmr
…
    Source

    https://indianbirds.in/india/

    See also

    The script to update the latest version of the checklist in skimmr:
https://github.com/rikudoukarthik/skimmr/blob/main/data-raw/india_checklist.R

    Examples

  india_checklist
#> # A tibble: 1,368 × 25
#>    Order        Family   Species      `English Name` `Scientific Name` Authority
#>    <chr>        <chr>    <chr>        <chr>          <chr>             <chr>    
#>  1 Anseriformes Anatidae Fulvous Whi… Fulvous Whist… Dendrocygna bico… (Vieillo…
#>  2 Anseriformes Anatidae Lesser Whis… Lesser Whistl… Dendrocygna java… (Horsfie…
#>  3 Anseriformes Anatidae Bar-headed … Bar-headed Go… Anser indicus     (Latham,…
#>  4 Anseriformes Anatidae Greylag Goo… Greylag Goose  Anser anser       (Linnaeu…
#>  5 Anseriformes Anatidae Greater Whi… Greater White… Anser albifrons   (Scopoli…
#>  6 Anseriformes Anatidae Lesser Whit… Lesser White-… Anser erythropus  (Linnaeu…
#>  7 Anseriformes Anatidae Taiga Bean-… Taiga Bean-Go… Anser fabalis     (Latham,…
#>  8 Anseriformes Anatidae Tundra Bean… Tundra Bean-G… Anser serrirostr… Gould, 1…
#>  9 Anseriformes Anatidae Barnacle Go… Barnacle Goose Branta leucopsis  (Bechste…
#> 10 Anseriformes Anatidae Red-breaste… Red-breasted … Branta ruficollis (Pallas,…
#> # ℹ 1,358 more rows
#> # ℹ 19 more variables: `Alternative Name(s)` <chr>, Rarity <chr>,
#> #   Historical <chr>, `IUCN RedList_2023` <chr>, `WPA Schedule` <chr>,
#> #   `SOIB 2023` <chr>, `CITES Appendix` <chr>, `CMS Appendix` <chr>,
#> #   `Endemic (India)` <chr>, `Endemic (Andaman & Nicobar Is)` <chr>,
#> #   `Endemic (Assam Plains)` <chr>, `Endemic (Cental Indian Forests)` <chr>,
#> #   `Endemic (Southern Andhra Pradesh)` <chr>, …
…
